…
	> # How many properties are worth $1,000,000 or more ? 
	> 
	> # As described in the "code book" we have that: Property value ==  Column "VAL" 
	> 
	> data <- tbl_df(idahodata)
	> 
	> # Removing the original data frame
	> rm(idahodata)
	> 
	> # Property value greater than a 24
	> mydf <- filter(data, VAL >= 24 )
	> 
	> # Showing values with filter applied
	> select(mydf, VAL)
	# A tibble: 53 x 1
	     VAL
	   <int>
	 1    24
	 2    24
	 3    24
	 4    24
	 5    24
	 6    24
	 7    24
	 8    24
	 9    24
	10    24
	# ... with 43 more rows
…
